{
    "3": {
        "config": {
            "ContentMessage": "\n\t\tOl\u00e1 {{Data['ClinetName']}}!\n\t\tSeu pedido {{Data['ProductName']}} com data de vencimento no dia {{Data['ExpireAt']}} acaba de ser processado.\n\t\tPar sua comodidade segue seu boleto em anexo.\n\t", 
            "Gateway": "GerenciaNet", 
            "MessageContent": "\n\t\tOl\u00e1 {{Data['ClinetName']}}!\n\t\tSeu pedido {{Data['ProductName']}} com data de vencimento no dia {{Data['ExpireAt']}} acaba de ser processado.\n\t\tPar sua comodidade segue seu boleto em anexo.\n\t", 
            "MessageTitle": "Pagamento Processado", 
            "client_id": "Client_Id_02045c9fd4ec659c1694baa546318dfb9750405b", 
            "client_secret": "Client_Secret_0cd256255998b36550829652d029bea4d48a2517", 
            "sandbox": true
        }, 
        "items": [
            {
                "amount": 1, 
                "name": "ProdutctName", 
                "value": 1000
            }
        ], 
        "params": {
            "Amount": 1, 
            "BirthDay": "1977-01-15", 
            "CPF": "94271564656", 
            "ClientEmail": "marciomau@gmail.com", 
            "ClinetName": "Gorbadoc Oldbuck", 
            "ExpireAt": "2017-10-04", 
            "PhoneNumber": "5144916523", 
            "ProductName": "ProdutctName", 
            "ProductValue": 1000, 
            "ShippingName": "No shipping", 
            "ShippingValue": 0
        }, 
        "payment": {
            "banking_billet": {
                "customer": {
                    "birth": "1977-01-15", 
                    "cpf": "94271564656", 
                    "email": "oldbuck@gerencianet.com.br", 
                    "name": "Gorbadoc Oldbuck", 
                    "phone_number": "5144916523"
                }, 
                "expire_at": "2017-10-04"
            }
        }, 
        "shippings": [
            {
                "name": "No shipping", 
                "value": 0
            }
        ]
    }, 
    "0": {
        "config": {
            "Gateway": "GerenciaNet", 
            "client_id": "Client_Id_02045c9fd4ec659c1694baa546318dfb9750405b", 
            "client_secret": "Client_Secret_0cd256255998b36550829652d029bea4d48a2517", 
            "sandbox": true
        }, 
        "items": [
            {
                "amount": 1, 
                "name": "ProdutctName", 
                "value": 1000
            }
        ], 
        "params": {
            "Amount": 1, 
            "BirthDay": "1977-01-15", 
            "CPF": "94271564656", 
            "ClientEmail": "marciomau@gmail.com", 
            "ClinetName": "Gorbadoc Oldbuck", 
            "ExpireAt": "2017-10-04", 
            "PhoneNumber": "5144916523", 
            "ProductName": "ProdutctName", 
            "ProductValue": 1000, 
            "ShippingName": "No shipping", 
            "ShippingValue": 0
        }, 
        "payment": {
            "banking_billet": {
                "customer": {
                    "birth": "1977-01-15", 
                    "cpf": "94271564656", 
                    "email": "oldbuck@gerencianet.com.br", 
                    "name": "Gorbadoc Oldbuck", 
                    "phone_number": "5144916523"
                }, 
                "expire_at": "2017-10-04"
            }
        }, 
        "shippings": [
            {
                "name": "No shipping", 
                "value": 0
            }
        ]
    }, 
    "1": {
        "config": {
            "ContentMessage": "\n\t\tOl\u00e1 {{Data['ClinetName']}}!\n\t\tSeu pedido {{Data['ProductName']}} com data de vencimento no dia {{Data['ExpireAt']}} acaba de ser processado.\n\t\tPar sua comodidade segue seu boleto em anexo.\n\t", 
            "Gateway": "GerenciaNet", 
            "MessageContent": "\n\t\tOl\u00e1 {{Data['ClinetName']}}!\n\t\tSeu pedido {{Data['ProductName']}} com data de vencimento no dia {{Data['ExpireAt']}} acaba de ser processado.\n\t\tPar sua comodidade segue seu boleto em anexo.\n\t", 
            "MessageTitle": "Pagamento Processado", 
            "client_id": "Client_Id_02045c9fd4ec659c1694baa546318dfb9750405b", 
            "client_secret": "Client_Secret_0cd256255998b36550829652d029bea4d48a2517", 
            "sandbox": true
        }, 
        "items": [
            {
                "amount": 1, 
                "name": "ProdutctName", 
                "value": 1000
            }
        ], 
        "params": {
            "Amount": 1, 
            "BirthDay": "1977-01-15", 
            "CPF": "94271564656", 
            "ClientEmail": "marciomau@gmail.com", 
            "ClinetName": "Gorbadoc Oldbuck", 
            "ExpireAt": "2017-10-04", 
            "PhoneNumber": "5144916523", 
            "ProductName": "ProdutctName", 
            "ProductValue": 1000, 
            "ShippingName": "No shipping", 
            "ShippingValue": 0
        }, 
        "payment": {
            "banking_billet": {
                "customer": {
                    "birth": "1977-01-15", 
                    "cpf": "94271564656", 
                    "email": "oldbuck@gerencianet.com.br", 
                    "name": "Gorbadoc Oldbuck", 
                    "phone_number": "5144916523"
                }, 
                "expire_at": "2017-10-04"
            }
        }, 
        "shippings": [
            {
                "name": "No shipping", 
                "value": 0
            }
        ]
    }, 
    "2": {
        "config": {
            "ContentMessage": "\n\t\tOl\u00e1 {{Data['ClinetName']}}!\n\t\tSeu pedido {{Data['ProductName']}} com data de vencimento no dia {{Data['ExpireAt']}} acaba de ser processado.\n\t\tPar sua comodidade segue seu boleto em anexo.\n\t", 
            "Gateway": "GerenciaNet", 
            "MessageContent": "\n\t\tOl\u00e1 {{Data['ClinetName']}}!\n\t\tSeu pedido {{Data['ProductName']}} com data de vencimento no dia {{Data['ExpireAt']}} acaba de ser processado.\n\t\tPar sua comodidade segue seu boleto em anexo.\n\t", 
            "MessageTitle": "Pagamento Processado", 
            "client_id": "Client_Id_02045c9fd4ec659c1694baa546318dfb9750405b", 
            "client_secret": "Client_Secret_0cd256255998b36550829652d029bea4d48a2517", 
            "sandbox": true
        }, 
        "items": [
            {
                "amount": 1, 
                "name": "ProdutctName", 
                "value": 1000
            }
        ], 
        "params": {
            "Amount": 1, 
            "BirthDay": "1977-01-15", 
            "CPF": "94271564656", 
            "ClientEmail": "marciomau@gmail.com", 
            "ClinetName": "Gorbadoc Oldbuck", 
            "ExpireAt": "2017-10-04", 
            "PhoneNumber": "5144916523", 
            "ProductName": "ProdutctName", 
            "ProductValue": 1000, 
            "ShippingName": "No shipping", 
            "ShippingValue": 0
        }, 
        "payment": {
            "banking_billet": {
                "customer": {
                    "birth": "1977-01-15", 
                    "cpf": "94271564656", 
                    "email": "oldbuck@gerencianet.com.br", 
                    "name": "Gorbadoc Oldbuck", 
                    "phone_number": "5144916523"
                }, 
                "expire_at": "2017-10-04"
            }
        }, 
        "shippings": [
            {
                "name": "No shipping", 
                "value": 0
            }
        ]
    }
}