{
    "Cnpj": "13419453000107", 
    "InscricaoMunicipal": "123456", 
    "Items": {
        "Aliquota": {
            "ListPath": [
                "InfDeclaracaoPrestacaoServico", 
                "Servico", 
                "Valores", 
                "Aliquota"
            ], 
            "Required": false, 
            "Type": "float", 
            "Value": "0.00"
        }, 
        "Bairro": {
            "ListPath": [
                "InfDeclaracaoPrestacaoServico", 
                "Tomador", 
                "Endereco", 
                "Bairro"
            ], 
            "Required": true, 
            "Type": "string", 
            "Value": "xxxxxx"
        }, 
        "Cnpj": {
            "ListPath": [
                "InfDeclaracaoPrestacaoServico", 
                "Tomador", 
                "IdentificacaoTomador", 
                "CpfCnpj", 
                "Cnpj"
            ], 
            "Required": true, 
            "Type": "cnpj", 
            "Value": "00000000000000"
        }, 
        "CodigoMunicipio": {
            "ListPath": [
                "InfDeclaracaoPrestacaoServico", 
                "Tomador", 
                "Endereco", 
                "CodigoMunicipio"
            ], 
            "Required": true, 
            "Type": "int", 
            "Value": 0
        }, 
        "Competencia": {
            "ListPath": [
                "InfDeclaracaoPrestacaoServico", 
                "Competencia"
            ], 
            "Required": true, 
            "Type": "date", 
            "Value": "0001-01-01"
        }, 
        "Cpf": {
            "ListPath": [
                "InfDeclaracaoPrestacaoServico", 
                "Tomador", 
                "IdentificacaoTomador", 
                "CpfCnpj", 
                "Cnpj"
            ], 
            "Required": false, 
            "Type": "cpf", 
            "Value": "00000000000"
        }, 
        "DataEmissao": {
            "ListPath": [
                "InfDeclaracaoPrestacaoServico", 
                "Rps", 
                "DataEmissao"
            ], 
            "Required": true, 
            "Type": "date", 
            "Value": "0001-01-01"
        }, 
        "DescontoCondicionado": {
            "ListPath": [
                "InfDeclaracaoPrestacaoServico", 
                "Servico", 
                "Valores", 
                "DescontoIncondicionado"
            ], 
            "Required": false, 
            "Type": "float", 
            "Value": "0.00"
        }, 
        "DescontoIncondicionado": {
            "ListPath": [
                "InfDeclaracaoPrestacaoServico", 
                "Servico", 
                "Valores", 
                "DescontoIncondicionado"
            ], 
            "Required": false, 
            "Type": "float", 
            "Value": "0.00"
        }, 
        "Discriminacao": {
            "ListPath": [
                "InfDeclaracaoPrestacaoServico", 
                "Servico", 
                "Discriminacao"
            ], 
            "Required": true, 
            "Type": "string", 
            "Value": "xxxxxx"
        }, 
        "Numero": {
            "ListPath": [
                "InfDeclaracaoPrestacaoServico", 
                "Tomador", 
                "Endereco", 
                "Numero"
            ], 
            "Required": true, 
            "Type": "string", 
            "Value": "xxxxxx"
        }, 
        "OutrasRetencoes": {
            "ListPath": [
                "InfDeclaracaoPrestacaoServico", 
                "Servico", 
                "Valores", 
                "OutrasRetencoes"
            ], 
            "Required": false, 
            "Type": "float", 
            "Value": "0.00"
        }, 
        "RazaoSocial": {
            "ListPath": [
                "InfDeclaracaoPrestacaoServico", 
                "Tomador", 
                "RazaoSocial"
            ], 
            "Required": true, 
            "Type": "string", 
            "Value": "xxxxxx"
        }, 
        "Uf": {
            "ListPath": [
                "InfDeclaracaoPrestacaoServico", 
                "Tomador", 
                "Endereco", 
                "Uf"
            ], 
            "Required": true, 
            "Type": "string", 
            "Value": "xxxxxx"
        }, 
        "ValorCofins": {
            "ListPath": [
                "InfDeclaracaoPrestacaoServico", 
                "Servico", 
                "Valores", 
                "ValorCofins"
            ], 
            "Required": false, 
            "Type": "float", 
            "Value": "0.00"
        }, 
        "ValorCsll": {
            "ListPath": [
                "InfDeclaracaoPrestacaoServico", 
                "Servico", 
                "Valores", 
                "ValorCsll"
            ], 
            "Required": false, 
            "Type": "float", 
            "Value": "0.00"
        }, 
        "ValorDeducoes": {
            "ListPath": [
                "InfDeclaracaoPrestacaoServico", 
                "Servico", 
                "Valores", 
                "ValorDeducoes"
            ], 
            "Required": false, 
            "Type": "float", 
            "Value": "0.00"
        }, 
        "ValorInss": {
            "ListPath": [
                "InfDeclaracaoPrestacaoServico", 
                "Servico", 
                "Valores", 
                "ValorInss"
            ], 
            "Required": false, 
            "Type": "float", 
            "Value": "0.00"
        }, 
        "ValorIr": {
            "ListPath": [
                "InfDeclaracaoPrestacaoServico", 
                "Servico", 
                "Valores", 
                "ValorIr"
            ], 
            "Required": false, 
            "Type": "float", 
            "Value": "0.00"
        }, 
        "ValorIss": {
            "ListPath": [
                "InfDeclaracaoPrestacaoServico", 
                "Servico", 
                "Valores", 
                "ValorIss"
            ], 
            "Required": false, 
            "Type": "float", 
            "Value": "0.00"
        }, 
        "ValorPis": {
            "ListPath": [
                "InfDeclaracaoPrestacaoServico", 
                "Servico", 
                "Valores", 
                "ValorPis"
            ], 
            "Required": false, 
            "Type": "float", 
            "Value": "0.00"
        }, 
        "ValorServicos": {
            "ListPath": [
                "InfDeclaracaoPrestacaoServico", 
                "Servico", 
                "Valores", 
                "ValorServicos"
            ], 
            "Required": true, 
            "Type": "float", 
            "Value": "0.00"
        }
    }, 
    "NextLot": 1, 
    "NextRps": 1, 
    "Rps": {
        "CodigoMunicipio": "3205309", 
        "ExigibilidadeISS": "1", 
        "IncentivoFiscal": "2", 
        "IssRetido": "2", 
        "ItemListaServico": "17.19", 
        "MunicipioIncidencia": "3205309", 
        "OptanteSimplesNacional": "1", 
        "RegimeEspecialTributacao": "6", 
        "Serie": "NFE", 
        "Tipo": "1"
    }, 
    "ambiente": "homologacao", 
    "atividade": "6311-9/00", 
    "certificado": "", 
    "cidade_servico": "", 
    "estado_servico": "", 
    "exigibilidade": "exigivel", 
    "pais_servico": "", 
    "regime": "simples", 
    "senha_certificado": "", 
    "subatividade": "1.03", 
    "url_ws_homologacao": "https://wsnfse.vitoria.es.gov.br/homologacao/NotaFiscalService.asmx?WSDL", 
    "url_ws_producao": "https://wsnfse.vitoria.es.gov.br/producao/NotaFiscalService.asmx?WSDL"
}