{
    "Bairro": "Jardim Camburi", 
    "Cep": "29090-100", 
    "Cidade": "Vitoria", 
    "Cnpj": "13419453000107", 
    "Complemento": "Salas 801 e 802", 
    "Estado": "ES", 
    "InscricaoMunicipal": "1201640", 
    "Logradouro": "Rua Gelu Vervloet dos Santos", 
    "Numero": "590", 
    "RazaoSocial": "TERAMUNDI SOLUCOES LTDA"
}