{
    "APPLICATION_NAME": "Google Sheets API Python Quickstart", 
    "CLIENT_SECRET_FILE": "config/client_secret.json", 
    "DISCOVERY_URL": "https://sheets.googleapis.com/$discovery/rest?version=v4", 
    "SCOPES": "https://www.googleapis.com/auth/spreadsheets", 
    "SHEET_KEY": "1uRs-QMdjBFe_EGWg5jlbFysd8lhAoPPm1NHpF_gGYWE"
}