{
    "Tab": "Registros", 
    "columnCount": 15, 
    "keys": {
        "Area": "C", 
        "ChaveNF": "K", 
        "DataEmissao": "E", 
        "DataPagamento": "I", 
        "Descricao": "B", 
        "DescricaoEstruturada": "M", 
        "Fatura": "O", 
        "HostName": "D", 
        "IdBoleto": "L", 
        "Juros": "G", 
        "NumeroNF": "J", 
        "Observacao": "N", 
        "Status": "H", 
        "Tomador": "A", 
        "ValorServicos": "F"
    }, 
    "rowCount": 4, 
    "values": {
        "2": {
            "Area": "E-mail", 
            "ChaveNF": "", 
            "DataEmissao": "15/05/2017", 
            "DataPagamento": "", 
            "Descricao": "Quota de 30GB", 
            "DescricaoEstruturada": "Quota de 30GB", 
            "Fatura": "", 
            "HostName": "vargas", 
            "IdBoleto": "", 
            "Juros": "", 
            "NumeroNF": "", 
            "Observacao": "", 
            "Status": "", 
            "Tomador": "Vargas Construtora", 
            "ValorServicos": "72,00"
        }, 
        "3": {
            "Area": "Servidores Virtuais", 
            "ChaveNF": "", 
            "DataEmissao": "15/05/2017", 
            "DataPagamento": "", 
            "Descricao": "Cloud Starter", 
            "DescricaoEstruturada": "Cloud Starter", 
            "Fatura": "", 
            "HostName": "vargas", 
            "IdBoleto": "", 
            "Juros": "", 
            "NumeroNF": "", 
            "Observacao": "", 
            "Status": "", 
            "Tomador": "Vargas Construtora", 
            "ValorServicos": "99,00"
        }, 
        "4": {
            "Area": "Servidores Virtuais", 
            "ChaveNF": "", 
            "DataEmissao": "15/05/2017", 
            "DataPagamento": "", 
            "Descricao": "Desconto proporcional", 
            "DescricaoEstruturada": "Desconto proporcional", 
            "Fatura": "", 
            "HostName": "vargas", 
            "IdBoleto": "", 
            "Juros": "", 
            "NumeroNF": "", 
            "Observacao": "", 
            "Status": "", 
            "Tomador": "Vargas Construtora", 
            "ValorServicos": "-10,00"
        }
    }
}