{
    "ColumnEnd": "B", 
    "ColumnIni": "A", 
    "LineEnd": 45, 
    "LineIni": 2, 
    "SheetKey": "1uRs-QMdjBFe_EGWg5jlbFysd8lhAoPPm1NHpF_gGYWE", 
    "SheetName": "Configuracao", 
    "majorDimension": "ROWS", 
    "range": "Configuracao!A2:B45", 
    "values": {
        "2": {
            "A": "RazaoSocial", 
            "B": "TERAMUNDI SOLUCOES LTDA"
        }, 
        "3": {
            "A": "Cnpj", 
            "B": "13419453000107"
        }, 
        "4": {
            "A": "InscricaoMunicipal", 
            "B": "1201640"
        }, 
        "5": {
            "A": "Logradouro", 
            "B": "Rua Gelu Vervloet dos Santos"
        }, 
        "6": {
            "A": "Numero", 
            "B": "590"
        }, 
        "7": {
            "A": "Complemento", 
            "B": "Salas 801 e 802"
        }, 
        "8": {
            "A": "Bairro", 
            "B": "Jardim Camburi"
        }, 
        "9": {
            "A": "Cidade", 
            "B": "Vitoria"
        }, 
        "10": {
            "A": "Estado", 
            "B": "ES"
        }, 
        "11": {
            "A": "Cep", 
            "B": "29090-100"
        }, 
        "12": {
            "A": "// Nota Fiscal", 
            "B": "Nfe"
        }, 
        "13": {
            "A": "ambiente", 
            "B": "homologacao"
        }, 
        "14": {
            "A": "url_ws_homologacao", 
            "B": "https://wsnfse.vitoria.es.gov.br/homologacao/NotaFiscalService.asmx?WSDL"
        }, 
        "15": {
            "A": "url_ws_producao", 
            "B": "https://wsnfse.vitoria.es.gov.br/producao/NotaFiscalService.asmx?WSDL"
        }, 
        "16": {
            "A": "certificado", 
            "B": ""
        }, 
        "17": {
            "A": "senha_certificado", 
            "B": ""
        }, 
        "18": {
            "A": "pais_servico", 
            "B": ""
        }, 
        "19": {
            "A": "estado_servico", 
            "B": ""
        }, 
        "20": {
            "A": "cidade_servico", 
            "B": ""
        }, 
        "21": {
            "A": "atividade", 
            "B": "6311-9/00"
        }, 
        "22": {
            "A": "subatividade", 
            "B": "1.03"
        }, 
        "23": {
            "A": "regime", 
            "B": "simples"
        }, 
        "24": {
            "A": "exigibilidade", 
            "B": "exigivel"
        }, 
        "25": {
            "A": "// Boleto Bancario", 
            "B": "Ticket"
        }, 
        "26": {
            "A": "gateway_boleto", 
            "B": ""
        }, 
        "27": {
            "A": "url_api", 
            "B": ""
        }, 
        "28": {
            "A": "token", 
            "B": ""
        }, 
        "29": {
            "A": "multa", 
            "B": ""
        }, 
        "30": {
            "A": "juros", 
            "B": ""
        }, 
        "31": {
            "A": "obs1", 
            "B": ""
        }, 
        "32": {
            "A": "obs2", 
            "B": ""
        }, 
        "33": {
            "A": "obs3", 
            "B": ""
        }, 
        "34": {
            "A": "// E-mail", 
            "B": "Mailer"
        }, 
        "35": {
            "A": "template_email", 
            "B": ""
        }, 
        "36": {
            "A": "padrao_subject", 
            "B": "Teramundi _ Faturamento mensal "
        }, 
        "37": {
            "A": "padrao_body", 
            "B": "Ol\u00e1,"
        }, 
        "38": {
            "A": "cancelamento_subject", 
            "B": "Teramundi _ Faturamento cancelado"
        }, 
        "39": {
            "A": "cancelamento_body", 
            "B": ""
        }, 
        "40": {
            "A": "reenvio_subject", 
            "B": "Teramundi _ Faturamento atualizado"
        }, 
        "41": {
            "A": "reenvio_body", 
            "B": ""
        }, 
        "42": {
            "A": "from_nome", 
            "B": "Financeiro Teramundi"
        }, 
        "43": {
            "A": "from_email", 
            "B": "noreply@teramundi.com"
        }, 
        "44": {
            "A": "replyto", 
            "B": "financeiro@teramundi.com"
        }, 
        "45": {
            "A": "disclaimer", 
            "B": "- - - - - - - - - - - - - - - - - - - - - - - - - - - - - - - - - - - - \nEsta mensagem foi enviada automaticamente pelo nosso sistema de faturamento. Em caso de d\u00favidas, favor entrar em contato com nosso financeiro em 0800 600 8372 (op\u00e7\u00e3o 2) ou pelo e-mail financeiro@teramundi.com"
        }
    }
}